[
	{
		"id": "balut",
		"url": "/news/1",
		"name": "<span>Семёну Смирнову</span> необходима оплата лечения и приобретение лекарственных препаратов",
		"content": "Ему 13 лет, он занимается каратэ и верит в себя. Семён борется с Медуллобластомой червя мозжечка и IV желудочка",
		"more": "Подробнее о Семёне, его диагнозе и жизни",
		"srcPhoto": "/images/news-list__pic3.jpg",
		"need": "643789",
		"remains": "356300",
		"cash": "1000000"
	},
	{
		"id": "balut",
		"url": "/news/1",
		"name": "<span>Иброхимжон Бадалов</span> борется с медуллобластомой червя мозжечка",
		"content": "Ему 10 лет и он увлекается самолётами, тхэквондо и теннисом, изучает английский, любит читать энциклопедии — причем про все на свете.",
		"more": "Подробнее об Иброхимджоне, его диагнозе и жизни",
		"srcPhoto": "/images/news-list__pic4.jpg",
		"need": "513789",
		"remains": "386300",
		"cash": "900000"
	},
	{
		"id": "balut",
		"url": "/news/1",
		"name": "<span>Александр Скрыпник</span> борется с эмбриональной рабдомиосаркомой основания черепа",
		"content": "Ему 11 лет и он хочет стать режиссёром, познакомиться и поговорить по-мужски с Дартом Вейдером",
		"more": "Подробнее об Александре, его диагнозе и жизни",
		"srcPhoto": "/images/news-list__pic5.jpg",
		"need": "113789",
		"remains": "586300",
		"cash": "700000"
	},
	{
		"id": "balut",
		"url": "/news/1",
		"name": "<span>Семёну Смирнову</span> необходима оплата лечения и приобретение лекарственных препаратов",
		"content": "Ему 13 лет, он занимается каратэ и верит в себя. Семён борется с Медуллобластомой червя мозжечка и IV желудочка",
		"more": "Подробнее о Семёне, его диагнозе и жизни",
		"srcPhoto": "/images/news-list__pic3.jpg",
		"need": "643789",
		"remains": "356300",
		"cash": "1000000"
	},
	{
		"id": "balut",
		"url": "/news/1",
		"name": "<span>Иброхимжон Бадалов</span> борется с медуллобластомой червя мозжечка",
		"content": "Ему 10 лет и он увлекается самолётами, тхэквондо и теннисом, изучает английский, любит читать энциклопедии — причем про все на свете.",
		"more": "Подробнее об Иброхимджоне, его диагнозе и жизни",
		"srcPhoto": "/images/news-list__pic4.jpg",
		"need": "513789",
		"remains": "386300",
		"cash": "900000"
	},
	{
		"id": "balut",
		"url": "/news/1",
		"name": "<span>Семёну Смирнову</span> необходима оплата лечения и приобретение лекарственных препаратов",
		"content": "Ему 13 лет, он занимается каратэ и верит в себя. Семён борется с Медуллобластомой червя мозжечка и IV желудочка",
		"more": "Подробнее о Семёне, его диагнозе и жизни",
		"srcPhoto": "/images/news-list__pic3.jpg",
		"need": "643789",
		"remains": "356300",
		"cash": "1000000"
	},
	{
		"id": "balut",
		"url": "/news/1",
		"name": "<span>Иброхимжон Бадалов</span> борется с медуллобластомой червя мозжечка",
		"content": "Ему 10 лет и он увлекается самолётами, тхэквондо и теннисом, изучает английский, любит читать энциклопедии — причем про все на свете.",
		"more": "Подробнее об Иброхимджоне, его диагнозе и жизни",
		"srcPhoto": "/images/news-list__pic4.jpg",
		"need": "513789",
		"remains": "386300",
		"cash": "900000"
	},
	{
		"id": "balut",
		"url": "/news/1",
		"name": "<span>Александр Скрыпник</span> борется с эмбриональной рабдомиосаркомой основания черепа",
		"content": "Ему 11 лет и он хочет стать режиссёром, познакомиться и поговорить по-мужски с Дартом Вейдером",
		"more": "Подробнее об Александре, его диагнозе и жизни",
		"srcPhoto": "/images/news-list__pic5.jpg",
		"need": "113789",
		"remains": "586300",
		"cash": "700000"
	},
	{
		"id": "balut",
		"url": "/news/1",
		"name": "<span>Семёну Смирнову</span> необходима оплата лечения и приобретение лекарственных препаратов",
		"content": "Ему 13 лет, он занимается каратэ и верит в себя. Семён борется с Медуллобластомой червя мозжечка и IV желудочка",
		"more": "Подробнее о Семёне, его диагнозе и жизни",
		"srcPhoto": "/images/news-list__pic3.jpg",
		"need": "643789",
		"remains": "356300",
		"cash": "1000000"
	}
]