<svg 
 xmlns="http://www.w3.org/2000/svg"
 xmlns:xlink="http://www.w3.org/1999/xlink"
 width="28px" height="31px">
<path fill-rule="evenodd"  stroke-width="3px" stroke="rgb(209, 77, 156)" fill-opacity="0" fill="rgb(117, 64, 153)"
 d="M21.500,15.499 L6.500,24.160 L6.500,6.839 L21.500,15.499 Z"/>
</svg>